{
    "cordova-plugin-whitelist": {
        "source": {
            "type": "registry",
            "id": "cordova-plugin-whitelist@~1.3.2"
        },
        "is_top_level": true,
        "variables": {}
    },
    "call-number": {
        "source": {
            "type": "registry",
            "id": "https://github.com/Rohfosho/CordovaCallNumberPlugin.git"
        },
        "is_top_level": true,
        "variables": {}
    },
    "cordova-plugin-x-socialsharing": {
        "source": {
            "type": "git",
            "url": "https://github.com/EddyVerbruggen/SocialSharing-PhoneGap-Plugin.git",
            "subdir": "."
        },
        "is_top_level": true,
        "variables": {}
    },
    "es6-promise-plugin": {
        "source": {
            "type": "registry",
            "id": "es6-promise-plugin"
        },
        "is_top_level": false,
        "variables": {}
    },
    "cordova-plugin-camera": {
        "source": {
            "type": "registry",
            "id": "cordova-plugin-camera"
        },
        "is_top_level": true,
        "variables": {}
    },
    "cordova-plugin-compat": {
        "source": {
            "type": "registry",
            "id": "cordova-plugin-compat@^1.1.0"
        },
        "is_top_level": false,
        "variables": {}
    },
    "cordova-plugin-x-toast": {
        "source": {
            "type": "registry",
            "id": "cordova-plugin-x-toast"
        },
        "is_top_level": true,
        "variables": {}
    },
    "cordova-plugin-pdialog": {
        "source": {
            "type": "registry",
            "id": "cordova-plugin-pdialog@^2.0.1"
        },
        "is_top_level": true,
        "variables": {}
    },
    "cordova-plugin-spinner-dialog": {
        "source": {
            "type": "registry",
            "id": "cordova-plugin-spinner-dialog"
        },
        "is_top_level": true,
        "variables": {}
    },
    "cordova-plugin-statusbar": {
        "source": {
            "type": "registry",
            "id": "cordova-plugin-statusbar@^2.2.3"
        },
        "is_top_level": true,
        "variables": {}
    },
    "cordova-plugin-websocket": {
        "source": {
            "type": "registry",
            "id": "https://github.com/knowledgecode/WebSocket-for-Android.git"
        },
        "is_top_level": true,
        "variables": {}
    },
    "cordova-custom-config": {
        "source": {
            "type": "registry",
            "id": "cordova-custom-config"
        },
        "is_top_level": true,
        "variables": {}
    },
    "cordova-plugin-inappbrowser": {
        "source": {
            "type": "registry",
            "id": "https://github.com/apache/cordova-plugin-inappbrowser"
        },
        "is_top_level": true,
        "variables": {}
    },
    "phonegap-facebook-plugin": {
        "source": {
            "type": "git",
            "url": "https://github.com/Wizcorp/phonegap-facebook-plugin/",
            "subdir": "."
        },
        "is_top_level": true,
        "variables": {}
    },
    "cordova-plugin-facebook4": {
        "source": {
            "type": "registry",
            "id": "cordova-plugin-facebook4"
        },
        "is_top_level": true,
        "variables": {
            "APP_ID": "1981419805468750",
            "APP_NAME": "Heraj"
        }
    },
    "twitter-connect-plugin": {
        "source": {
            "type": "registry",
            "id": "https://github.com/ManifestWebDesign/twitter-connect-plugin"
        },
        "is_top_level": true,
        "variables": {}
    },
    "cordova-plugin-twitter": {
        "source": {
            "type": "registry",
            "id": "cordova-plugin-twitter"
        },
        "is_top_level": true,
        "variables": {}
    },
    "cordova-plugin-googleplus": {
        "source": {
            "type": "registry",
            "id": "cordova-plugin-googleplus"
        },
        "is_top_level": true,
        "variables": {
            "REVERSED_CLIENT_ID": "282780806297-qq2gmss0cjvgk3pr53mbr61kaa8k43s1.apps.googleusercontent.com"
        }
    },
    "cordova-plugin-firebase": {
        "source": {
            "type": "registry",
            "id": "cordova-plugin-firebase@0.1.24"
        },
        "is_top_level": true,
        "variables": {}
    },
    "cordova-plugin-backbutton": {
        "source": {
            "type": "git",
            "url": "https://github.com/mohamed-salah/phonegap-backbutton-plugin.git",
            "subdir": "."
        },
        "is_top_level": true,
        "variables": {}
    },
    "org.pbernasconi.progressindicator": {
        "source": {
            "type": "registry",
            "id": "https://github.com/pbernasconi/cordova-progressIndicator"
        },
        "is_top_level": true,
        "variables": {}
    },
    "cordova-plugin-file": {
        "source": {
            "type": "registry",
            "id": "cordova-plugin-file@4.3.2"
        },
        "is_top_level": false,
        "variables": {}
    },
    "cordova-plugin-photo-library": {
        "source": {
            "type": "registry",
            "id": "cordova-plugin-photo-library@^2.1.0"
        },
        "is_top_level": true,
        "variables": {
            "PHOTO_LIBRARY_USAGE_DESCRIPTION": "To choose photos"
        }
    },
    "cordova-plugin-image-picker": {
        "source": {
            "type": "git",
            "url": "https://github.com/Findiglay/cordova-imagePicker",
            "subdir": "."
        },
        "is_top_level": true,
        "variables": {}
    },
    "onesignal-cordova-plugin": {
        "source": {
            "type": "registry",
            "id": "onesignal-cordova-plugin"
        },
        "is_top_level": true,
        "variables": {}
    },
    "cordova-plugin-network-information": {
        "source": {
            "type": "registry",
            "id": "cordova-plugin-network-information"
        },
        "is_top_level": true,
        "variables": {}
    },
    "cordova.plugins.diagnostic": {
        "source": {
            "type": "registry",
            "id": "cordova.plugins.diagnostic"
        },
        "is_top_level": true,
        "variables": {}
    }
}